{
  "href": "https://api.spotify.com/v1/me/top/artists",
  "limit": 20,
  "next": "https://api.spotify.com/v1/me/top/artists?limit=20&offset=20",
  "offset": 0,
  "previous": null,
  "total": 50,
  "items": [
    {
      "external_urls": {
        "spotify": "https://open.spotify.com/artist/3Dw9w3jnmr58ocgxiwITcq"
      },
      "followers": {
        "href": null,
        "total": 0
      },
      "genres": [
        "electronica",
        "filter house",
        "french indie pop",
        "french indietronica"
      ],
      "href": "https://api.spotify.com/v1/artists/3Dw9w3jnmr58ocgxiwITcq",
      "id": "3Dw9w3jnmr58ocgxiwITcq",
      "images": [
        {
          "url": "https://i.scdn.co/image/ab6761610000e5eb608703f68ac7fd2cfcf6f5da",
          "height": 640,
          "width": 640
        },
        {
          "url": "https://i.scdn.co/image/ab67616100005174608703f68ac7fd2cfcf6f5da",
          "height": 320,
          "width": 320
        },
        {
          "url": "https://i.scdn.co/image/ab6761610000f178608703f68ac7fd2cfcf6f5da",
          "height": 160,
          "width": 160
        }
      ],
      "name": "Rone",
      "popularity": 46,
      "type": "artist",
      "uri": "spotify:artist:3Dw9w3jnmr58ocgxiwITcq"
    },
    {
      "external_urls": {
        "spotify": "https://open.spotify.com/artist/6mdiAmATAx73kdxrNrnlao"
      },
      "followers": {
        "href": null,
        "total": 0
      },
      "genres": [
        "alternative metal",
        "hard rock",
        "metal",
        "nwobhm",
        "rock"
      ],
      "href": "https://api.spotify.com/v1/artists/6mdiAmATAx73kdxrNrnlao",
      "id": "6mdiAmATAx73kdxrNrnlao",
      "images": [
        {
          "url": "https://i.scdn.co/image/ab6761610000e5eb232a905537f61c00da9d16e0",
          "height": 640,
          "width": 640
        },
        {
          "url": "https://i.scdn.co/image/ab67616100005174232a905537f61c00da9d16e0",
          "height": 320,
          "width": 320
        },
        {
          "url": "https://i.scdn.co/image/ab6761610000f178232a905537f61c00da9d16e0",
          "height": 160,
          "width": 160
        }
      ],
      "name": "Iron Maiden",
      "popularity": 70,
      "type": "artist",
      "uri": "spotify:artist:6mdiAmATAx73kdxrNrnlao"
    },
    {
      "external_urls": {
        "spotify": "https://open.spotify.com/artist/2TI7qyDE0QfyOlnbtfDo7L"
      },
      "followers": {
        "href": null,
        "total": 0
      },
      "genres": [
        "jam band",
        "neo mellow",
        "pop rock"
      ],
      "href": "https://api.spotify.com/v1/artists/2TI7qyDE0QfyOlnbtfDo7L",
      "id": "2TI7qyDE0QfyOlnbtfDo7L",
      "images": [
        {
          "url": "https://i.scdn.co/image/ab6761610000e5ebc04724201a3cd1a81d7bba05",
          "height": 640,
          "width": 640
        },
        {
          "url": "https://i.scdn.co/image/ab67616100005174c04724201a3cd1a81d7bba05",
          "height": 320,
          "width": 320
        },
        {
          "url": "https://i.scdn.co/image/ab6761610000f178c04724201a3cd1a81d7bba05",
          "height": 160,
          "width": 160
        }
      ],
      "name": "Dave Matthews Band",
      "popularity": 61,
      "type": "artist",
      "uri": "spotify:artist:2TI7qyDE0QfyOlnbtfDo7L"
    },
    {
      "external_urls": {
        "spotify": "https://open.spotify.com/artist/73GhYkwfPQzmfJb1cdPqPf"
      },
      "followers": {
        "href": null,
        "total": 0
      },
      "genres": [
        "hel",
        "shred",
        "slayer"
      ],
      "href": "https://api.spotify.com/v1/artists/73GhYkwfPQzmfJb1cdPqPf",
      "id": "73GhYkwfPQzmfJb1cdPqPf",
      "images": [
        {
          "url": "https://i.scdn.co/image/ab6761610000e5eb838c4ca3c29a7b7a2431eb9b",
          "height": 640,
          "width": 640
        },
        {
          "url": "https://i.scdn.co/image/ab67616100005174838c4ca3c29a7b7a2431eb9b",
          "height": 320,
          "width": 320
        },
        {
          "url": "https://i.scdn.co/image/ab6761610000f178838c4ca3c29a7b7a2431eb9b",
          "height": 160,
          "width": 160
        }
      ],
      "name": "Nita Strauss",
      "popularity": 45,
      "type": "artist",
      "uri": "spotify:artist:73GhYkwfPQzmfJb1cdPqPf"
    },
    {
      "external_urls": {
        "spotify": "https://open.spotify.com/artist/0VOR7Ie9xUSb45fzIIVJQ1"
      },
      "followers": {
        "href": null,
        "total": 0
      },
      "genres": [
        "ambient guitar",
        "ambient post-rock",
        "ambient worship",
        "compositional ambient",
        "instrumental post-rock",
        "post-rock",
        "space ambient"
      ],
      "href": "https://api.spotify.com/v1/artists/0VOR7Ie9xUSb45fzIIVJQ1",
      "id": "0VOR7Ie9xUSb45fzIIVJQ1",
      "images": [
        {
          "url": "https://i.scdn.co/image/ab6761610000e5ebbaede86bbfc2bd986d52a681",
          "height": 640,
          "width": 640
        },
        {
          "url": "https://i.scdn.co/image/ab67616100005174baede86bbfc2bd986d52a681",
          "height": 320,
          "width": 320
        },
        {
          "url": "https://i.scdn.co/image/ab6761610000f178baede86bbfc2bd986d52a681",
          "height": 160,
          "width": 160
        }
      ],
      "name": "Hammock",
      "popularity": 46,
      "type": "artist",
      "uri": "spotify:artist:0VOR7Ie9xUSb45fzIIVJQ1"
    },
    {
      "external_urls": {
        "spotify": "https://open.spotify.com/artist/2t9yJDJIEtvPmr2iRIdqBf"
      },
      "followers": {
        "href": null,
        "total": 0
      },
      "genres": [
        "indie folk"
      ],
      "href": "https://api.spotify.com/v1/artists/2t9yJDJIEtvPmr2iRIdqBf",
      "id": "2t9yJDJIEtvPmr2iRIdqBf",
      "images": [
        {
          "url": "https://i.scdn.co/image/ab6761610000e5eb9e6c6c815fb8c9e16e6a6e04",
          "height": 640,
          "width": 640
        },
        {
          "url": "https://i.scdn.co/image/ab676161000051749e6c6c815fb8c9e16e6a6e04",
          "height": 320,
          "width": 320
        },
        {
          "url": "https://i.scdn.co/image/ab6761610000f1789e6c6c815fb8c9e16e6a6e04",
          "height": 160,
          "width": 160
        }
      ],
      "name": "Fink",
      "popularity": 51,
      "type": "artist",
      "uri": "spotify:artist:2t9yJDJIEtvPmr2iRIdqBf"
    },
    {
      "external_urls": {
        "spotify": "https://open.spotify.com/artist/6ds1QR84YPoQUF8FPJusMQ"
      },
      "followers": {
        "href": null,
        "total": 0
      },
      "genres": [
        "high vibe",
        "shamanic"
      ],
      "href": "https://api.spotify.com/v1/artists/6ds1QR84YPoQUF8FPJusMQ",
      "id": "6ds1QR84YPoQUF8FPJusMQ",
      "images": [
        {
          "url": "https://i.scdn.co/image/ab6761610000e5ebb39f820dcf9b1bc9cf82f897",
          "height": 640,
          "width": 640
        },
        {
          "url": "https://i.scdn.co/image/ab67616100005174b39f820dcf9b1bc9cf82f897",
          "height": 320,
          "width": 320
        },
        {
          "url": "https://i.scdn.co/image/ab6761610000f178b39f820dcf9b1bc9cf82f897",
          "height": 160,
          "width": 160
        }
      ],
      "name": "Yaima",
      "popularity": 47,
      "type": "artist",
      "uri": "spotify:artist:6ds1QR84YPoQUF8FPJusMQ"
    },
    {
      "external_urls": {
        "spotify": "https://open.spotify.com/artist/38DX4hQVvPBs3PThDIAK11"
      },
      "followers": {
        "href": null,
        "total": 0
      },
      "genres": [
        "ambient trance",
        "downtempo",
        "psychill"
      ],
      "href": "https://api.spotify.com/v1/artists/38DX4hQVvPBs3PThDIAK11",
      "id": "38DX4hQVvPBs3PThDIAK11",
      "images": [
        {
          "url": "https://i.scdn.co/image/ab6761610000e5eb6b51432699e704aeee20e761",
          "height": 640,
          "width": 640
        },
        {
          "url": "https://i.scdn.co/image/ab676161000051746b51432699e704aeee20e761",
          "height": 320,
          "width": 320
        },
        {
          "url": "https://i.scdn.co/image/ab6761610000f1786b51432699e704aeee20e761",
          "height": 160,
          "width": 160
        }
      ],
      "name": "Carbon Based Lifeforms",
      "popularity": 45,
      "type": "artist",
      "uri": "spotify:artist:38DX4hQVvPBs3PThDIAK11"
    },
    {
      "external_urls": {
        "spotify": "https://open.spotify.com/artist/6jOoEU2E2d2kGbxw33oJs3"
      },
      "followers": {
        "href": null,
        "total": 0
      },
      "genres": [
        "shred"
      ],
      "href": "https://api.spotify.com/v1/artists/6jOoEU2E2d2kGbxw33oJs3",
      "id": "6jOoEU2E2d2kGbxw33oJs3",
      "images": [
        {
          "url": "https://i.scdn.co/image/ab6761610000e5eb056afb6f6d52f4b8b3e6783b",
          "height": 640,
          "width": 640
        },
        {
          "url": "https://i.scdn.co/image/ab67616100005174056afb6f6d52f4b8b3e6783b",
          "height": 320,
          "width": 320
        },
        {
          "url": "https://i.scdn.co/image/ab6761610000f178056afb6f6d52f4b8b3e6783b",
          "height": 160,
          "width": 160
        }
      ],
      "name": "Sophie Lloyd",
      "popularity": 34,
      "type": "artist",
      "uri": "spotify:artist:6jOoEU2E2d2kGbxw33oJs3"
    },
    {
      "external_urls": {
        "spotify": "https://open.spotify.com/artist/6eUKZXaKkcviH0Ku9w2n3V"
      },
      "followers": {
        "href": null,
        "total": 0
      },
      "genres": [
        "pop",
        "singer-songwriter pop",
        "uk pop"
      ],
      "href": "https://api.spotify.com/v1/artists/6eUKZXaKkcviH0Ku9w2n3V",
      "id": "6eUKZXaKkcviH0Ku9w2n3V",
      "images": [
        {
          "url": "https://i.scdn.co/image/ab6761610000e5eb3bcef85e105dfc42399ef0ba",
          "height": 640,
          "width": 640
        },
        {
          "url": "https://i.scdn.co/image/ab676161000051743bcef85e105dfc42399ef0ba",
          "height": 320,
          "width": 320
        },
        {
          "url": "https://i.scdn.co/image/ab6761610000f1783bcef85e105dfc42399ef0ba",
          "height": 160,
          "width": 160
        }
      ],
      "name": "Ed Sheeran",
      "popularity": 87,
      "type": "artist",
      "uri": "spotify:artist:6eUKZXaKkcviH0Ku9w2n3V"
    },
    {
      "external_urls": {
        "spotify": "https://open.spotify.com/artist/33Cf4O1KAVbtQa00scMi2A"
      },
      "followers": {
        "href": null,
        "total": 0
      },
      "genres": [
        "chillstep",
        "substep"
      ],
      "href": "https://api.spotify.com/v1/artists/33Cf4O1KAVbtQa00scMi2A",
      "id": "33Cf4O1KAVbtQa00scMi2A",
      "images": [
        {
          "url": "https://i.scdn.co/image/ab6761610000e5ebce716c13a2ea21b55b0b9113",
          "height": 640,
          "width": 640
        },
        {
          "url": "https://i.scdn.co/image/ab67616100005174ce716c13a2ea21b55b0b9113",
          "height": 320,
          "width": 320
        },
        {
          "url": "https://i.scdn.co/image/ab6761610000f178ce716c13a2ea21b55b0b9113",
          "height": 160,
          "width": 160
        }
      ],
      "name": "AK",
      "popularity": 48,
      "type": "artist",
      "uri": "spotify:artist:33Cf4O1KAVbtQa00scMi2A"
    },
    {
      "external_urls": {
        "spotify": "https://open.spotify.com/artist/2OIWxN9xUhgUHkeUCWCaNs"
      },
      "followers": {
        "href": null,
        "total": 0
      },
      "genres": [
        "swedish pop"
      ],
      "href": "https://api.spotify.com/v1/artists/2OIWxN9xUhgUHkeUCWCaNs",
      "id": "2OIWxN9xUhgUHkeUCWCaNs",
      "images": [
        {
          "url": "https://i.scdn.co/image/ab6761610000e5ebb1b12c57641adcce01d1eb1d",
          "height": 640,
          "width": 640
        },
        {
          "url": "https://i.scdn.co/image/ab67616100005174b1b12c57641adcce01d1eb1d",
          "height": 320,
          "width": 320
        },
        {
          "url": "https://i.scdn.co/image/ab6761610000f178b1b12c57641adcce01d1eb1d",
          "height": 160,
          "width": 160
        }
      ],
      "name": "Veronica Maggio",
      "popularity": 62,
      "type": "artist",
      "uri": "spotify:artist:2OIWxN9xUhgUHkeUCWCaNs"
    },
    {
      "external_urls": {
        "spotify": "https://open.spotify.com/artist/2uFUBdaVGtyMqckSeCl0Qj"
      },
      "followers": {
        "href": null,
        "total": 0
      },
      "genres": [
        "compositional ambient",
        "neo-classical"
      ],
      "href": "https://api.spotify.com/v1/artists/2uFUBdaVGtyMqckSeCl0Qj",
      "id": "2uFUBdaVGtyMqckSeCl0Qj",
      "images": [
        {
          "url": "https://i.scdn.co/image/ab6761610000e5eb41b332cbe960237714e82408",
          "height": 640,
          "width": 640
        },
        {
          "url": "https://i.scdn.co/image/ab6761610000517441b332cbe960237714e82408",
          "height": 320,
          "width": 320
        },
        {
          "url": "https://i.scdn.co/image/ab6761610000f17841b332cbe960237714e82408",
          "height": 160,
          "width": 160
        }
      ],
      "name": "Ludovico Einaudi",
      "popularity": 75,
      "type": "artist",
      "uri": "spotify:artist:2uFUBdaVGtyMqckSeCl0Qj"
    },
    {
      "external_urls": {
        "spotify": "https://open.spotify.com/artist/6EN5zX1Q2W7qcesyatdUfO"
      },
      "followers": {
        "href": null,
        "total": 0
      },
      "genres": [
        "glitch hop",
        "psychill",
        "world fusion"
      ],
      "href": "https://api.spotify.com/v1/artists/6EN5zX1Q2W7qcesyatdUfO",
      "id": "6EN5zX1Q2W7qcesyatdUfO",
      "images": [
        {
          "url": "https://i.scdn.co/image/ab6761610000e5eb8a470d205a44c071665fb3a6",
          "height": 640,
          "width": 640
        },
        {
          "url": "https://i.scdn.co/image/ab676161000051748a470d205a44c071665fb3a6",
          "height": 320,
          "width": 320
        },
        {
          "url": "https://i.scdn.co/image/ab6761610000f1788a470d205a44c071665fb3a6",
          "height": 160,
          "width": 160
        }
      ],
      "name": "Desert Dwellers",
      "popularity": 40,
      "type": "artist",
      "uri": "spotify:artist:6EN5zX1Q2W7qcesyatdUfO"
    },
    {
      "external_urls": {
        "spotify": "https://open.spotify.com/artist/6MJKlN8ya42Agsw3iQZs6e"
      },
      "followers": {
        "href": null,
        "total": 0
      },
      "genres": [
        "french indie pop",
        "french indietronica"
      ],
      "href": "https://api.spotify.com/v1/artists/6MJKlN8ya42Agsw3iQZs6e",
      "id": "6MJKlN8ya42Agsw3iQZs6e",
      "images": [
        {
          "url": "https://i.scdn.co/image/ab6761610000e5eb3050b7bd7338622d541652a6",
          "height": 640,
          "width": 640
        },
        {
          "url": "https://i.scdn.co/image/ab676161000051743050b7bd7338622d541652a6",
          "height": 320,
          "width": 320
        },
        {
          "url": "https://i.scdn.co/image/ab6761610000f1783050b7bd7338622d541652a6",
          "height": 160,
          "width": 160
        }
      ],
      "name": "French 79",
      "popularity": 57,
      "type": "artist",
      "uri": "spotify:artist:6MJKlN8ya42Agsw3iQZs6e"
    },
    {
      "external_urls": {
        "spotify": "https://open.spotify.com/artist/4DkYxtaASIKQnk4Gj0TB7k"
      },
      "followers": {
        "href": null,
        "total": 0
      },
      "genres": [
        "american post-rock"
      ],
      "href": "https://api.spotify.com/v1/artists/4DkYxtaASIKQnk4Gj0TB7k",
      "id": "4DkYxtaASIKQnk4Gj0TB7k",
      "images": [
        {
          "url": "https://i.scdn.co/image/ab6761610000e5ebef394a1fa0791950f2a42d0d",
          "height": 640,
          "width": 640
        },
        {
          "url": "https://i.scdn.co/image/ab67616100005174ef394a1fa0791950f2a42d0d",
          "height": 320,
          "width": 320
        },
        {
          "url": "https://i.scdn.co/image/ab6761610000f178ef394a1fa0791950f2a42d0d",
          "height": 160,
          "width": 160
        }
      ],
      "name": "City of the Sun",
      "popularity": 40,
      "type": "artist",
      "uri": "spotify:artist:4DkYxtaASIKQnk4Gj0TB7k"
    },
    {
      "external_urls": {
        "spotify": "https://open.spotify.com/artist/2ye2Wgw4gimLv2eAKyk1NB"
      },
      "followers": {
        "href": null,
        "total": 0
      },
      "genres": [
        "hard rock",
        "metal",
        "old school thrash",
        "rock",
        "thrash metal"
      ],
      "href": "https://api.spotify.com/v1/artists/2ye2Wgw4gimLv2eAKyk1NB",
      "id": "2ye2Wgw4gimLv2eAKyk1NB",
      "images": [
        {
          "url": "https://i.scdn.co/image/ab6761610000e5eb69ca98dd3083f1082d740e44",
          "height": 640,
          "width": 640
        },
        {
          "url": "https://i.scdn.co/image/ab6761610000517469ca98dd3083f1082d740e44",
          "height": 320,
          "width": 320
        },
        {
          "url": "https://i.scdn.co/image/ab6761610000f17869ca98dd3083f1082d740e44",
          "height": 160,
          "width": 160
        }
      ],
      "name": "Metallica",
      "popularity": 79,
      "type": "artist",
      "uri": "spotify:artist:2ye2Wgw4gimLv2eAKyk1NB"
    },
    {
      "external_urls": {
        "spotify": "https://open.spotify.com/artist/7yxi31szvlbwvKq9dYOmFI"
      },
      "followers": {
        "href": null,
        "total": 0
      },
      "genres": [
        "compositional ambient",
        "electronica",
        "intelligent dance music"
      ],
      "href": "https://api.spotify.com/v1/artists/7yxi31szvlbwvKq9dYOmFI",
      "id": "7yxi31szvlbwvKq9dYOmFI",
      "images": [
        {
          "url": "https://i.scdn.co/image/ab6761610000e5eb7ebcdfc56de761d77733e24e",
          "height": 640,
          "width": 640
        },
        {
          "url": "https://i.scdn.co/image/ab676161000051747ebcdfc56de761d77733e24e",
          "height": 320,
          "width": 320
        },
        {
          "url": "https://i.scdn.co/image/ab6761610000f1787ebcdfc56de761d77733e24e",
          "height": 160,
          "width": 160
        }
      ],
      "name": "Jon Hopkins",
      "popularity": 52,
      "type": "artist",
      "uri": "spotify:artist:7yxi31szvlbwvKq9dYOmFI"
    },
    {
      "external_urls": {
        "spotify": "https://open.spotify.com/artist/0UoXOPQo2BAZ3pSfkt5XZA"
      },
      "followers": {
        "href": null,
        "total": 0
      },
      "genres": [],
      "href": "https://api.spotify.com/v1/artists/0UoXOPQo2BAZ3pSfkt5XZA",
      "id": "0UoXOPQo2BAZ3pSfkt5XZA",
      "images": [
        {
          "url": "https://i.scdn.co/image/ab6761610000e5ebb5e45d8da315fb5eb9549f3a",
          "height": 640,
          "width": 640
        },
        {
          "url": "https://i.scdn.co/image/ab67616100005174b5e45d8da315fb5eb9549f3a",
          "height": 320,
          "width": 320
        },
        {
          "url": "https://i.scdn.co/image/ab6761610000f178b5e45d8da315fb5eb9549f3a",
          "height": 160,
          "width": 160
        }
      ],
      "name": "Klangphonics",
      "popularity": 38,
      "type": "artist",
      "uri": "spotify:artist:0UoXOPQo2BAZ3pSfkt5XZA"
    },
    {
      "external_urls": {
        "spotify": "https://open.spotify.com/artist/2nq2BeSbzExGAv3Y4HgUf7"
      },
      "followers": {
        "href": null,
        "total": 0
      },
      "genres": [
        "deep techno",
        "german techno",
        "minimal techno"
      ],
      "href": "https://api.spotify.com/v1/artists/2nq2BeSbzExGAv3Y4HgUf7",
      "id": "2nq2BeSbzExGAv3Y4HgUf7",
      "images": [
        {
          "url": "https://i.scdn.co/image/ab6761610000e5ebc8f97c697a730bf12b4bb89a",
          "height": 640,
          "width": 640
        },
        {
          "url": "https://i.scdn.co/image/ab67616100005174c8f97c697a730bf12b4bb89a",
          "height": 320,
          "width": 320
        },
        {
          "url": "https://i.scdn.co/image/ab6761610000f178c8f97c697a730bf12b4bb89a",
          "height": 160,
          "width": 160
        }
      ],
      "name": "Stephan Bodzin",
      "popularity": 44,
      "type": "artist",
      "uri": "spotify:artist:2nq2BeSbzExGAv3Y4HgUf7"
    }
  ]
}